<svg width="16" height="17" viewBox="0 0 16 17" fill="none" xmlns="http://www.w3.org/2000/svg">
<path d="M14.5678 1.91724L7.89225 8.59235M1.21667 15.2675L7.89225 8.59235M7.89225 8.59235L14.5678 15.2679M7.89225 8.59235L1.21714 1.91724" stroke="#221C55" stroke-width="2" stroke-linecap="round"/>
</svg>
