<svg width="17" height="17" viewBox="0 0 17 17" fill="none" xmlns="http://www.w3.org/2000/svg">
<path d="M2.7373 9.63816C2.7373 13.1425 5.67216 15.9834 9.29249 15.9834C12.9128 15.9834 15.8477 13.1425 15.8477 9.63816C15.8477 6.13381 12.9128 3.29297 9.29249 3.29297" stroke="#5A4BC9" stroke-width="1.5" stroke-linecap="round"/>
<rect x="0.847656" y="0.982422" width="6.80757" height="7.78604" fill="white"/>
<path d="M2.32129 1.99414V6.02252" stroke="#5A4BC9" stroke-width="1.5" stroke-linecap="round"/>
<path d="M5.73633 1.99414V6.02252" stroke="#5A4BC9" stroke-width="1.5" stroke-linecap="round"/>
<path d="M10.6173 9.46289C10.7539 9.53922 10.7539 9.73574 10.6173 9.81206L8.77147 10.8436C8.63816 10.9181 8.4739 10.8217 8.4739 10.669L8.4739 8.60593C8.4739 8.45321 8.63816 8.35684 8.77147 8.43135L10.6173 9.46289Z" fill="#5A4BC9" stroke="#5A4BC9" stroke-width="2" stroke-linecap="round"/>
</svg>
